// Jest Snapshot v1, https://goo.gl/fbAQLP

exports[`<Cockpit /> should match the snapshot 1`] = `
<View
  style={
    Array [
      Object {
        "backgroundColor": "#fff",
      },
      Object {
        "alignItems": "center",
        "flex": 1,
        "justifyContent": "flex-start",
      },
    ]
  }
>
  <View
    style={
      Array [
        Object {
          "backgroundColor": "#fff",
        },
        Object {
          "alignItems": "center",
          "flexDirection": "row",
          "justifyContent": "space-between",
          "marginBottom": 20,
          "shadowColor": "black",
          "shadowOffset": Object {
            "height": 3,
            "width": 3,
          },
          "shadowOpacity": 0.1,
          "width": "100%",
        },
      ]
    }
  >
    <View
      accessibilityLabel="cockpit.tabs.dashboard"
      accessible={true}
      focusable={true}
      onBlur={[Function]}
      onClick={[Function]}
      onFocus={[Function]}
      onResponderGrant={[Function]}
      onResponderMove={[Function]}
      onResponderRelease={[Function]}
      onResponderTerminate={[Function]}
      onResponderTerminationRequest={[Function]}
      onStartShouldSetResponder={[Function]}
      style={
        Array [
          Object {
            "borderBottomColor": "#d3d3d3",
            "borderBottomWidth": 1,
            "height": 40,
            "justifyContent": "center",
            "width": "33.3333333%",
          },
          Object {
            "backgroundColor": "#d3d3d3",
          },
        ]
      }
    >
      <Text
        style={
          Array [
            Object {
              "color": "#000",
            },
            Object {
              "textAlign": "center",
            },
          ]
        }
      >
        cockpit.tabs.dashboard
      </Text>
    </View>
    <View
      accessibilityLabel="cockpit.tabs.barriers"
      accessible={true}
      focusable={true}
      onBlur={[Function]}
      onClick={[Function]}
      onFocus={[Function]}
      onResponderGrant={[Function]}
      onResponderMove={[Function]}
      onResponderRelease={[Function]}
      onResponderTerminate={[Function]}
      onResponderTerminationRequest={[Function]}
      onStartShouldSetResponder={[Function]}
      style={
        Array [
          Object {
            "borderBottomColor": "#d3d3d3",
            "borderBottomWidth": 1,
            "height": 40,
            "justifyContent": "center",
            "width": "33.3333333%",
          },
          null,
        ]
      }
    >
      <Text
        style={
          Array [
            Object {
              "color": "#000",
            },
            Object {
              "textAlign": "center",
            },
          ]
        }
      >
        cockpit.tabs.barriers
      </Text>
    </View>
    <View
      accessibilityLabel="cockpit.tabs.profile"
      accessible={true}
      focusable={true}
      onBlur={[Function]}
      onClick={[Function]}
      onFocus={[Function]}
      onResponderGrant={[Function]}
      onResponderMove={[Function]}
      onResponderRelease={[Function]}
      onResponderTerminate={[Function]}
      onResponderTerminationRequest={[Function]}
      onStartShouldSetResponder={[Function]}
      style={
        Array [
          Object {
            "borderBottomColor": "#d3d3d3",
            "borderBottomWidth": 1,
            "height": 40,
            "justifyContent": "center",
            "width": "33.3333333%",
          },
          null,
        ]
      }
    >
      <Text
        style={
          Array [
            Object {
              "color": "#000",
            },
            Object {
              "textAlign": "center",
            },
          ]
        }
      >
        cockpit.tabs.profile
      </Text>
    </View>
  </View>
  <View
    style={
      Array [
        Object {
          "backgroundColor": "#fff",
        },
        Object {
          "paddingLeft": 20,
          "paddingRight": 20,
          "width": "100%",
        },
      ]
    }
  >
    <View
      style={
        Array [
          Object {
            "backgroundColor": "#fff",
          },
          Object {
            "borderColor": "#d3d3d3",
            "borderRadius": 5,
            "borderWidth": 1,
            "marginBottom": 10,
            "marginTop": 10,
            "padding": 10,
            "shadowColor": "black",
            "shadowOffset": Object {
              "height": 3,
              "width": 3,
            },
            "shadowOpacity": 0.3,
            "width": "100%",
          },
        ]
      }
    >
      <View
        style={
          Array [
            Object {
              "backgroundColor": "#fff",
            },
            Object {
              "alignItems": "center",
              "marginBottom": 15,
              "marginTop": 5,
              "width": "100%",
            },
          ]
        }
      >
        <Text
          style={
            Array [
              Object {
                "color": "#000",
              },
              Array [
                Object {
                  "textAlign": "center",
                },
                Object {
                  "fontSize": 18,
                },
              ],
            ]
          }
        >
          cockpit.dashboard.statistics
        </Text>
      </View>
      <View
        style={
          Array [
            Object {
              "backgroundColor": "#fff",
            },
            undefined,
          ]
        }
      >
        <View
          style={
            Array [
              Object {
                "backgroundColor": "#fff",
              },
              Object {
                "alignItems": "center",
                "flexDirection": "row",
              },
            ]
          }
        >
          <Text />
          <Text
            style={
              Array [
                Object {
                  "color": "#000",
                },
                Object {
                  "fontSize": 16,
                  "marginLeft": 20,
                },
              ]
            }
          >
            cockpit.dashboard.numberOfBarriers
          </Text>
        </View>
      </View>
    </View>
    <View
      style={
        Array [
          Object {
            "backgroundColor": "#fff",
          },
          Object {
            "borderColor": "#d3d3d3",
            "borderRadius": 5,
            "borderWidth": 1,
            "marginBottom": 10,
            "marginTop": 10,
            "padding": 10,
            "shadowColor": "black",
            "shadowOffset": Object {
              "height": 3,
              "width": 3,
            },
            "shadowOpacity": 0.3,
            "width": "100%",
          },
        ]
      }
    >
      <View
        style={
          Array [
            Object {
              "backgroundColor": "#fff",
            },
            Object {
              "alignItems": "center",
              "marginBottom": 15,
              "marginTop": 5,
              "width": "100%",
            },
          ]
        }
      >
        <Text
          style={
            Array [
              Object {
                "color": "#000",
              },
              Array [
                Object {
                  "textAlign": "center",
                },
                Object {
                  "fontSize": 18,
                },
              ],
            ]
          }
        >
          cockpit.dashboard.about
        </Text>
      </View>
      <View
        style={
          Array [
            Object {
              "backgroundColor": "#fff",
            },
            Object {
              "alignItems": "center",
            },
          ]
        }
      >
        <Text
          style={
            Array [
              Object {
                "color": "#000",
              },
              Object {
                "textAlign": "center",
              },
            ]
          }
        >
          cockpit.dashboard.love
        </Text>
        <Text
          style={
            Array [
              Object {
                "color": "#000",
              },
              Array [
                Object {
                  "textAlign": "center",
                },
                Object {
                  "marginBottom": 20,
                  "marginTop": 10,
                },
              ],
            ]
          }
        >
          cockpit.dashboard.thanks
        </Text>
        <View
          accessibilityRole="button"
          accessibilityState={Object {}}
          accessible={true}
          focusable={true}
          onClick={[Function]}
          onResponderGrant={[Function]}
          onResponderMove={[Function]}
          onResponderRelease={[Function]}
          onResponderTerminate={[Function]}
          onResponderTerminationRequest={[Function]}
          onStartShouldSetResponder={[Function]}
          style={
            Object {
              "opacity": 1,
            }
          }
        >
          <View
            style={
              Array [
                Object {},
              ]
            }
          >
            <Text
              style={
                Array [
                  Object {
                    "color": "#007AFF",
                    "fontSize": 18,
                    "margin": 8,
                    "textAlign": "center",
                  },
                ]
              }
            >
              cockpit.dashboard.guide
            </Text>
          </View>
        </View>
      </View>
    </View>
  </View>
</View>
`;
